[
    {
        "fecha": "string",
        "contenido": "string",
        "imagen": "string",
        "favorita": "boolean"
    },
    {
        "fecha": "string",
        "contenido": "string",
        "imagen": "string",
        "favorita": "boolean"
    },
    {
        "fecha": "string",
        "contenido": "string",
        "imagen": "string",
        "favorita": "boolean"
    }
]